PCBNEW-LibModule-V1  Thu 22 Sep 2016 10:33:00 BST
# encoding utf-8
Units mm
$INDEX
BB_no_outline
$EndINDEX
$MODULE BB_no_outline
Po 0 0 0 15 57E3A51E 00000000 ~~
Li BB_no_outline
Kw beaglebone black
Sc 0
AR /57DCFF26
Op 0 0 0
T0 0 1.778 1.524 1.524 0 0.3048 N I 21 N "U1"
T1 0 -1.143 1.524 1.524 0 0.3048 N I 21 N "BEAGLEBONE"
$PAD
Sh "C1" R 1.8 1.8 0 0 0
Dr 1.1 0 0
At STD N 00E0FFFF
Ne 41 "GND"
Po 23.495 -25.4
$EndPAD
$PAD
Sh "C2" C 1.8 1.8 0 0 0
Dr 1.1 0 0
At STD N 00E0FFFF
Ne 41 "GND"
Po 23.495 -22.86
$EndPAD
$PAD
Sh "C3" C 1.8 1.8 0 0 0
Dr 1.1 0 0
At STD N 00E0FFFF
Ne 1 "+3.3V"
Po 20.955 -25.4
$EndPAD
$PAD
Sh "C4" C 1.8 1.8 0 0 0
Dr 1.1 0 0
At STD N 00E0FFFF
Ne 1 "+3.3V"
Po 20.955 -22.86
$EndPAD
$PAD
Sh "C5" C 1.8 1.8 0 0 0
Dr 1.1 0 0
At STD N 00E0FFFF
Ne 2 "+5V"
Po 18.415 -25.4
$EndPAD
$PAD
Sh "C6" C 1.8 1.8 0 0 0
Dr 1.1 0 0
At STD N 00E0FFFF
Ne 2 "+5V"
Po 18.415 -22.86
$EndPAD
$PAD
Sh "C7" C 1.8 1.8 0 0 0
Dr 1.1 0 0
At STD N 00E0FFFF
Ne 0 ""
Po 15.875 -25.4
$EndPAD
$PAD
Sh "C8" C 1.8 1.8 0 0 0
Dr 1.1 0 0
At STD N 00E0FFFF
Ne 0 ""
Po 15.875 -22.86
$EndPAD
$PAD
Sh "C9" C 1.8 1.8 0 0 0
Dr 1.1 0 0
At STD N 00E0FFFF
Ne 0 ""
Po 13.335 -25.4
$EndPAD
$PAD
Sh "C10" C 1.8 1.8 0 0 0
Dr 1.1 0 0
At STD N 00E0FFFF
Ne 0 ""
Po 13.335 -22.86
$EndPAD
$PAD
Sh "C11" C 1.8 1.8 0 0 0
Dr 1.1 0 0
At STD N 00E0FFFF
Ne 0 ""
Po 10.795 -25.4
$EndPAD
$PAD
Sh "C12" C 1.8 1.8 0 0 0
Dr 1.1 0 0
At STD N 00E0FFFF
Ne 3 "/Arm BB"
Po 10.795 -22.86
$EndPAD
$PAD
Sh "C13" C 1.8 1.8 0 0 0
Dr 1.1 0 0
At STD N 00E0FFFF
Ne 0 ""
Po 8.255 -25.4
$EndPAD
$PAD
Sh "C14" C 1.8 1.8 0 0 0
Dr 1.1 0 0
At STD N 00E0FFFF
Ne 30 "/Y Pwm BB"
Po 8.255 -22.86
$EndPAD
$PAD
Sh "C15" C 1.8 1.8 0 0 0
Dr 1.1 0 0
At STD N 00E0FFFF
Ne 0 ""
Po 5.715 -25.4
$EndPAD
$PAD
Sh "C16" C 1.8 1.8 0 0 0
Dr 1.1 0 0
At STD N 00E0FFFF
Ne 22 "/X Pwm BB"
Po 5.715 -22.86
$EndPAD
$PAD
Sh "C17" C 1.8 1.8 0 0 0
Dr 1.1 0 0
At STD N 00E0FFFF
Ne 0 ""
Po 3.175 -25.4
$EndPAD
$PAD
Sh "C18" C 1.8 1.8 0 0 0
Dr 1.1 0 0
At STD N 00E0FFFF
Ne 9 "/SDOUT"
Po 3.175 -22.86
$EndPAD
$PAD
Sh "C19" C 1.8 1.8 0 0 0
Dr 1.1 0 0
At STD N 00E0FFFF
Ne 0 ""
Po 0.635 -25.4
$EndPAD
$PAD
Sh "C20" C 1.8 1.8 0 0 0
Dr 1.1 0 0
At STD N 00E0FFFF
Ne 0 ""
Po 0.635 -22.86
$EndPAD
$PAD
Sh "C21" C 1.8 1.8 0 0 0
Dr 1.1 0 0
At STD N 00E0FFFF
Ne 38 "/Z Pwm BB"
Po -1.905 -25.4
$EndPAD
$PAD
Sh "C22" C 1.8 1.8 0 0 0
Dr 1.1 0 0
At STD N 00E0FFFF
Ne 8 "/SCLK"
Po -1.905 -22.86
$EndPAD
$PAD
Sh "C23" C 1.8 1.8 0 0 0
Dr 1.1 0 0
At STD N 00E0FFFF
Ne 0 ""
Po -4.445 -25.4
$EndPAD
$PAD
Sh "C24" C 1.8 1.8 0 0 0
Dr 1.1 0 0
At STD N 00E0FFFF
Ne 23 "/X Step BB"
Po -4.445 -22.86
$EndPAD
$PAD
Sh "C25" C 1.8 1.8 0 0 0
Dr 1.1 0 0
At STD N 00E0FFFF
Ne 20 "/X Eqep I BB"
Po -6.985 -25.4
$EndPAD
$PAD
Sh "C26" C 1.8 1.8 0 0 0
Dr 1.1 0 0
At STD N 00E0FFFF
Ne 31 "/Y Step BB"
Po -6.985 -22.86
$EndPAD
$PAD
Sh "C27" C 1.8 1.8 0 0 0
Dr 1.1 0 0
At STD N 00E0FFFF
Ne 19 "/X Eqep B BB"
Po -9.525 -25.4
$EndPAD
$PAD
Sh "C28" C 1.8 1.8 0 0 0
Dr 1.1 0 0
At STD N 00E0FFFF
Ne 39 "/Z Step BB"
Po -9.525 -22.86
$EndPAD
$PAD
Sh "C29" C 1.8 1.8 0 0 0
Dr 1.1 0 0
At STD N 00E0FFFF
Ne 33 "/Z Dir BB"
Po -12.065 -25.4
$EndPAD
$PAD
Sh "C30" C 1.8 1.8 0 0 0
Dr 1.1 0 0
At STD N 00E0FFFF
Ne 17 "/X Dir BB"
Po -12.065 -22.86
$EndPAD
$PAD
Sh "C31" C 1.8 1.8 0 0 0
Dr 1.1 0 0
At STD N 00E0FFFF
Ne 25 "/Y Dir BB"
Po -14.605 -25.4
$EndPAD
$PAD
Sh "C32" C 1.8 1.8 0 0 0
Dr 1.1 0 0
At STD N 00E0FFFF
Ne 0 ""
Po -14.605 -22.86
$EndPAD
$PAD
Sh "C33" C 1.8 1.8 0 0 0
Dr 1.1 0 0
At STD N 00E0FFFF
Ne 0 ""
Po -17.145 -25.4
$EndPAD
$PAD
Sh "C34" C 1.8 1.8 0 0 0
Dr 1.1 0 0
At STD N 00E0FFFF
Ne 40 "AGND"
Po -17.145 -22.86
$EndPAD
$PAD
Sh "C35" C 1.8 1.8 0 0 0
Dr 1.1 0 0
At STD N 00E0FFFF
Ne 16 "/X Analogue"
Po -19.685 -25.4
$EndPAD
$PAD
Sh "C36" C 1.8 1.8 0 0 0
Dr 1.1 0 0
At STD N 00E0FFFF
Ne 0 ""
Po -19.685 -22.86
$EndPAD
$PAD
Sh "C37" C 1.8 1.8 0 0 0
Dr 1.1 0 0
At STD N 00E0FFFF
Ne 24 "/Y Analogue"
Po -22.225 -25.4
$EndPAD
$PAD
Sh "C38" C 1.8 1.8 0 0 0
Dr 1.1 0 0
At STD N 00E0FFFF
Ne 0 ""
Po -22.225 -22.86
$EndPAD
$PAD
Sh "C39" C 1.8 1.8 0 0 0
Dr 1.1 0 0
At STD N 00E0FFFF
Ne 32 "/Z Analogue"
Po -24.765 -25.4
$EndPAD
$PAD
Sh "C40" C 1.8 1.8 0 0 0
Dr 1.1 0 0
At STD N 00E0FFFF
Ne 0 ""
Po -24.765 -22.86
$EndPAD
$PAD
Sh "C41" C 1.8 1.8 0 0 0
Dr 1.1 0 0
At STD N 00E0FFFF
Ne 20 "/X Eqep I BB"
Po -27.305 -25.4
$EndPAD
$PAD
Sh "C42" C 1.8 1.8 0 0 0
Dr 1.1 0 0
At STD N 00E0FFFF
Ne 18 "/X Eqep A BB"
Po -27.305 -22.86
$EndPAD
$PAD
Sh "C43" C 1.8 1.8 0 0 0
Dr 1.1 0 0
At STD N 00E0FFFF
Ne 0 ""
Po -29.845 -25.4
$EndPAD
$PAD
Sh "C44" C 1.8 1.8 0 0 0
Dr 1.1 0 0
At STD N 00E0FFFF
Ne 0 ""
Po -29.845 -22.86
$EndPAD
$PAD
Sh "C45" C 1.8 1.8 0 0 0
Dr 1.1 0 0
At STD N 00E0FFFF
Ne 0 ""
Po -32.385 -25.4
$EndPAD
$PAD
Sh "C46" C 1.8 1.8 0 0 0
Dr 1.1 0 0
At STD N 00E0FFFF
Ne 0 ""
Po -32.385 -22.86
$EndPAD
$PAD
Sh "B1" R 1.8 1.8 0 0 0
Dr 1.1 0 0
At STD N 00E0FFFF
Ne 0 ""
Po 23.495 22.86
$EndPAD
$PAD
Sh "B2" C 1.8 1.8 0 0 0
Dr 1.1 0 0
At STD N 00E0FFFF
Ne 0 ""
Po 23.495 25.4
$EndPAD
$PAD
Sh "B3" C 1.8 1.8 0 0 0
Dr 1.1 0 0
At STD N 00E0FFFF
Ne 0 ""
Po 20.955 22.86
$EndPAD
$PAD
Sh "B4" C 1.8 1.8 0 0 0
Dr 1.1 0 0
At STD N 00E0FFFF
Ne 0 ""
Po 20.955 25.4
$EndPAD
$PAD
Sh "B5" C 1.8 1.8 0 0 0
Dr 1.1 0 0
At STD N 00E0FFFF
Ne 0 ""
Po 18.415 22.86
$EndPAD
$PAD
Sh "B6" C 1.8 1.8 0 0 0
Dr 1.1 0 0
At STD N 00E0FFFF
Ne 0 ""
Po 18.415 25.4
$EndPAD
$PAD
Sh "B7" C 1.8 1.8 0 0 0
Dr 1.1 0 0
At STD N 00E0FFFF
Ne 0 ""
Po 15.875 22.86
$EndPAD
$PAD
Sh "B8" C 1.8 1.8 0 0 0
Dr 1.1 0 0
At STD N 00E0FFFF
Ne 0 ""
Po 15.875 25.4
$EndPAD
$PAD
Sh "B9" C 1.8 1.8 0 0 0
Dr 1.1 0 0
At STD N 00E0FFFF
Ne 0 ""
Po 13.335 22.86
$EndPAD
$PAD
Sh "B10" C 1.8 1.8 0 0 0
Dr 1.1 0 0
At STD N 00E0FFFF
Ne 0 ""
Po 13.335 25.4
$EndPAD
$PAD
Sh "B11" C 1.8 1.8 0 0 0
Dr 1.1 0 0
At STD N 00E0FFFF
Ne 35 "/Z Eqep B BB"
Po 10.795 22.86
$EndPAD
$PAD
Sh "B12" C 1.8 1.8 0 0 0
Dr 1.1 0 0
At STD N 00E0FFFF
Ne 34 "/Z Eqep A BB"
Po 10.795 25.4
$EndPAD
$PAD
Sh "B13" C 1.8 1.8 0 0 0
Dr 1.1 0 0
At STD N 00E0FFFF
Ne 0 ""
Po 8.255 22.86
$EndPAD
$PAD
Sh "B14" C 1.8 1.8 0 0 0
Dr 1.1 0 0
At STD N 00E0FFFF
Ne 36 "/Z Eqep I BB"
Po 8.255 25.4
$EndPAD
$PAD
Sh "B15" C 1.8 1.8 0 0 0
Dr 1.1 0 0
At STD N 00E0FFFF
Ne 4 "/DC Select"
Po 5.715 22.86
$EndPAD
$PAD
Sh "B16" C 1.8 1.8 0 0 0
Dr 1.1 0 0
At STD N 00E0FFFF
Ne 36 "/Z Eqep I BB"
Po 5.715 25.4
$EndPAD
$PAD
Sh "B17" C 1.8 1.8 0 0 0
Dr 1.1 0 0
At STD N 00E0FFFF
Ne 5 "/Display Reset"
Po 3.175 22.86
$EndPAD
$PAD
Sh "B18" C 1.8 1.8 0 0 0
Dr 1.1 0 0
At STD N 00E0FFFF
Ne 6 "/Estop BB"
Po 3.175 25.4
$EndPAD
$PAD
Sh "B19" C 1.8 1.8 0 0 0
Dr 1.1 0 0
At STD N 00E0FFFF
Ne 0 ""
Po 0.635 22.86
$EndPAD
$PAD
Sh "B20" C 1.8 1.8 0 0 0
Dr 1.1 0 0
At STD N 00E0FFFF
Ne 21 "/X Home BB"
Po 0.635 25.4
$EndPAD
$PAD
Sh "B21" C 1.8 1.8 0 0 0
Dr 1.1 0 0
At STD N 00E0FFFF
Ne 0 ""
Po -1.905 22.86
$EndPAD
$PAD
Sh "B22" C 1.8 1.8 0 0 0
Dr 1.1 0 0
At STD N 00E0FFFF
Ne 29 "/Y Home BB"
Po -1.905 25.4
$EndPAD
$PAD
Sh "B23" C 1.8 1.8 0 0 0
Dr 1.1 0 0
At STD N 00E0FFFF
Ne 0 ""
Po -4.445 22.86
$EndPAD
$PAD
Sh "B24" C 1.8 1.8 0 0 0
Dr 1.1 0 0
At STD N 00E0FFFF
Ne 37 "/Z Home BB"
Po -4.445 25.4
$EndPAD
$PAD
Sh "B25" C 1.8 1.8 0 0 0
Dr 1.1 0 0
At STD N 00E0FFFF
Ne 0 ""
Po -6.985 22.86
$EndPAD
$PAD
Sh "B26" C 1.8 1.8 0 0 0
Dr 1.1 0 0
At STD N 00E0FFFF
Ne 7 "/Probe BB"
Po -6.985 25.4
$EndPAD
$PAD
Sh "B27" C 1.8 1.8 0 0 0
Dr 1.1 0 0
At STD N 00E0FFFF
Ne 0 ""
Po -9.525 22.86
$EndPAD
$PAD
Sh "B28" C 1.8 1.8 0 0 0
Dr 1.1 0 0
At STD N 00E0FFFF
Ne 10 "/Spare 1"
Po -9.525 25.4
$EndPAD
$PAD
Sh "B29" C 1.8 1.8 0 0 0
Dr 1.1 0 0
At STD N 00E0FFFF
Ne 28 "/Y Eqep I BB"
Po -12.065 22.86
$EndPAD
$PAD
Sh "B30" C 1.8 1.8 0 0 0
Dr 1.1 0 0
At STD N 00E0FFFF
Ne 11 "/Spare 2"
Po -12.065 25.4
$EndPAD
$PAD
Sh "B31" C 1.8 1.8 0 0 0
Dr 1.1 0 0
At STD N 00E0FFFF
Ne 28 "/Y Eqep I BB"
Po -14.605 22.86
$EndPAD
$PAD
Sh "B32" C 1.8 1.8 0 0 0
Dr 1.1 0 0
At STD N 00E0FFFF
Ne 12 "/Spare 3"
Po -14.605 25.4
$EndPAD
$PAD
Sh "B33" C 1.8 1.8 0 0 0
Dr 1.1 0 0
At STD N 00E0FFFF
Ne 27 "/Y Eqep B BB"
Po -17.145 22.86
$EndPAD
$PAD
Sh "B34" C 1.8 1.8 0 0 0
Dr 1.1 0 0
At STD N 00E0FFFF
Ne 0 ""
Po -17.145 25.4
$EndPAD
$PAD
Sh "B35" C 1.8 1.8 0 0 0
Dr 1.1 0 0
At STD N 00E0FFFF
Ne 26 "/Y Eqep A BB"
Po -19.685 22.86
$EndPAD
$PAD
Sh "B36" C 1.8 1.8 0 0 0
Dr 1.1 0 0
At STD N 00E0FFFF
Ne 0 ""
Po -19.685 25.4
$EndPAD
$PAD
Sh "B37" C 1.8 1.8 0 0 0
Dr 1.1 0 0
At STD N 00E0FFFF
Ne 15 "/Uart Tx"
Po -22.225 22.86
$EndPAD
$PAD
Sh "B38" C 1.8 1.8 0 0 0
Dr 1.1 0 0
At STD N 00E0FFFF
Ne 14 "/Uart Rx"
Po -22.225 25.4
$EndPAD
$PAD
Sh "B39" C 1.8 1.8 0 0 0
Dr 1.1 0 0
At STD N 00E0FFFF
Ne 0 ""
Po -24.765 22.86
$EndPAD
$PAD
Sh "B40" C 1.8 1.8 0 0 0
Dr 1.1 0 0
At STD N 00E0FFFF
Ne 13 "/Uart FC"
Po -24.765 25.4
$EndPAD
$PAD
Sh "B41" C 1.8 1.8 0 0 0
Dr 1.1 0 0
At STD N 00E0FFFF
Ne 0 ""
Po -27.305 22.86
$EndPAD
$PAD
Sh "B42" C 1.8 1.8 0 0 0
Dr 1.1 0 0
At STD N 00E0FFFF
Ne 0 ""
Po -27.305 25.4
$EndPAD
$PAD
Sh "B43" C 1.8 1.8 0 0 0
Dr 1.1 0 0
At STD N 00E0FFFF
Ne 0 ""
Po -29.845 22.86
$EndPAD
$PAD
Sh "B44" C 1.8 1.8 0 0 0
Dr 1.1 0 0
At STD N 00E0FFFF
Ne 0 ""
Po -29.845 25.4
$EndPAD
$PAD
Sh "B45" C 1.8 1.8 0 0 0
Dr 1.1 0 0
At STD N 00E0FFFF
Ne 0 ""
Po -32.385 22.86
$EndPAD
$PAD
Sh "B46" C 1.8 1.8 0 0 0
Dr 1.1 0 0
At STD N 00E0FFFF
Ne 0 ""
Po -32.385 25.4
$EndPAD
$EndMODULE BB_no_outline
$EndLIBRARY
