PCBNEW-LibModule-V1  Tue 24 Jan 2017 11:32:47 GMT
# encoding utf-8
Units mm
$INDEX
Arm
Fuse
Gecko
Inputs
MainBoard
Oled
Terminal
Terminal10way
Terminal2way
Terminal5way
splitter
$EndINDEX
$MODULE Arm
Po 0 0 0 15 58873894 00000000 ~~
Li Arm
Sc 0
AR 
Op 0 0 0
T0 0 -25 10 10 0 1 N V 21 N "Arm"
T1 0 0 10 10 0 1 N I 21 N "VAL**"
DS -20 15 -20 -15 1 21
DS -20 -15 20 -15 1 21
DS 20 -15 20 15 1 21
DS -20 15 20 15 1 21
$EndMODULE Arm
$MODULE Fuse
Po 0 0 0 15 58823810 00000000 ~~
Li Fuse
Sc 0
AR 
Op 0 0 0
T0 -15 -20 10 10 0 1 N V 21 N "Fuse"
T1 25 -20 10 10 0 1 N V 21 N "VAL**"
DS -20 -10 20 -10 1 21
DS 20 -10 20 10 1 21
DS 20 10 -20 10 1 21
DS -20 10 -20 -10 1 21
$EndMODULE Fuse
$MODULE Gecko
Po 0 0 0 15 58823515 00000000 ~~
Li Gecko
Sc 0
AR 
Op 0 0 0
T0 -20 -75 10 10 0 1 N V 21 N "Gecko"
T1 25 -75 10 10 0 1 N V 21 N "Val**"
DS -60 -65 60 -65 1 21
DS 60 -65 60 55 1 21
DS 60 55 -60 55 1 21
DS -60 55 -60 -65 1 21
DS 60 45 60 55 0.15 21
DS 60 55 50 55 0.15 21
DS -60 -55 -60 -65 0.15 21
DS -60 -65 -50 -65 0.15 21
DS -50 -65 60 -65 0.15 21
DS 60 -65 60 45 0.15 21
DS 50 55 -60 55 0.15 21
DS -60 55 -60 -55 0.15 21
$EndMODULE Gecko
$MODULE Inputs
Po 0 0 0 15 58872BDE 00000000 ~~
Li Inputs
Sc 0
AR 
Op 0 0 0
T0 0 -40 10 10 0 1 N V 21 N "Input Board"
T1 0 -10 10 10 0 1 N I 21 N "VAL**"
DS -20 30 -20 -30 1 21
DS 20 -30 20 30 1 21
DS -20 30 20 30 1 21
DS -20 -30 -10 -30 1 21
DS -10 -30 20 -30 1 21
$EndMODULE Inputs
$MODULE MainBoard
Po 0 0 0 15 588234AE 00000000 ~~
Li MainBoard
Sc 0
AR 
Op 0 0 0
T0 0 -70 10 10 0 1 N V 21 N "Main Board"
T1 15 -40 1 1 0 0.15 N I 21 N "VAL**"
DS 60 -60 60 60 1 21
DS 60 60 -60 60 1 21
DS -60 60 -60 -60 1 21
DS -60 -60 60 -60 1 21
DS 60 -60 60 60 0.3 21
DS 60 60 -60 60 0.3 21
DS -60 60 -60 -60 0.3 21
DS 60 0 60 60 0.15 21
DS 60 60 -60 60 0.15 21
DS -60 60 -60 -60 0.15 21
DS -60 -60 0 -60 0.15 21
DS 0 -60 60 -60 0.15 21
DS 60 -60 60 0 0.15 21
$EndMODULE MainBoard
$MODULE Oled
Po 0 0 0 15 58873B55 00000000 ~~
Li Oled
Sc 0
AR 
Op 0 0 0
T0 0 -45 10 10 0 1 N V 21 N "Oled"
T1 0 0 10 10 0 1 N I 21 N "Val**"
DS -45 -35 45 -35 1 21
DS 45 -35 45 35 1 21
DS 45 35 -45 35 1 21
DS -45 35 -45 -35 1 21
$EndMODULE Oled
$MODULE Terminal
Po 0 0 0 15 588234F9 00000000 ~~
Li Terminal
Sc 0
AR 
Op 0 0 0
T0 0 0 1 1 0 0.15 N I 21 N "Terminal"
T1 0 -20 10 10 0 1 N V 21 N "VAL**"
DS -30 -10 30 -10 1 21
DS 30 -10 30 10 1 21
DS 30 10 -30 10 1 21
DS -30 10 -30 -10 1 21
DS 20 -10 30 -10 0.15 21
DS -30 10 30 10 0.15 21
DS 30 10 30 -10 0.15 21
DS -30 -10 -25 -10 0.15 21
DS -30 -10 -30 10 0.15 21
DS -25 -10 20 -10 0.15 21
$EndMODULE Terminal
$MODULE Terminal10way
Po 0 0 0 15 5887283F 00000000 ~~
Li Terminal10way
Sc 0
AR 
Op 0 0 0
T0 0 0 1 1 0 0.15 N I 21 N "Terminal"
T1 0 -20 10 10 0 1 N V 21 N "VAL**"
DS -50 -10 -25 -10 1 21
DS -25 10 -50 10 1 21
DS 50 10 25 10 1 21
DS 25 -10 50 -10 1 21
DS 25 10 -25 10 1 21
DS -25 -10 25 -10 1 21
DS 50 -10 50 10 1 21
DS -50 10 -50 -10 1 21
$EndMODULE Terminal10way
$MODULE Terminal2way
Po 0 0 0 15 58872370 00000000 ~~
Li Terminal2way
Sc 0
AR 
Op 0 0 0
T0 0 0 1 1 0 0.15 N I 21 N "Terminal"
T1 0 -20 10 10 0 1 N V 21 N "VAL**"
DS -10 -10 10 -10 1 21
DS 10 -10 10 10 1 21
DS 10 10 -10 10 1 21
DS 10 -10 10 10 1 21
DS -10 10 -10 -10 1 21
$EndMODULE Terminal2way
$MODULE Terminal5way
Po 0 0 0 15 58872679 00000000 ~~
Li Terminal5way
Sc 0
AR 
Op 0 0 0
T0 0 0 1 1 0 0.15 N I 21 N "Terminal"
T1 0 -20 10 10 0 1 N V 21 N "VAL**"
DS 25 10 -25 10 1 21
DS -25 -10 25 -10 1 21
DS 25 -10 25 10 1 21
DS -25 10 -25 -10 1 21
$EndMODULE Terminal5way
$MODULE splitter
Po 0 0 0 15 58872AEE 00000000 ~~
Li splitter
Sc 0
AR 
Op 0 0 0
T0 -25 -35 10 10 0 1 N V 21 N "Splitter"
T1 30 -35 10 10 0 1 N V 21 N "VAL**"
DS -20 15 20 15 1 21
DS -20 -20 -10 -20 1 21
DS -10 -20 20 -20 1 21
DS 20 -20 20 15 1 21
DS -20 15 -20 -20 1 21
$EndMODULE splitter
$EndLIBRARY
