EESchema Schematic File Version 2
LIBS:power
LIBS:device
LIBS:transistors
LIBS:conn
LIBS:linear
LIBS:regul
LIBS:74xx
LIBS:cmos4000
LIBS:adc-dac
LIBS:memory
LIBS:xilinx
LIBS:special
LIBS:microcontrollers
LIBS:dsp
LIBS:microchip
LIBS:analog_switches
LIBS:motorola
LIBS:texas
LIBS:intel
LIBS:audio
LIBS:interface
LIBS:digital-audio
LIBS:philips
LIBS:display
LIBS:cypress
LIBS:siliconi
LIBS:opto
LIBS:atmel
LIBS:contrib
LIBS:valves
LIBS:beaglebone
LIBS:7404
LIBS:mct61
LIBS:sp3485
LIBS:cape3-cache
EELAYER 27 0
EELAYER END
$Descr A4 11693 8268
encoding utf-8
Sheet 1 1
Title ""
Date "22 sep 2016"
Rev ""
Comp ""
Comment1 ""
Comment2 ""
Comment3 ""
Comment4 ""
$EndDescr
$Comp
L BEAGLEBONE U1
U 4 1 57DCFF26
P 2300 3300
F 0 "U1" H 2350 3250 60  0000 C CNN
F 1 "BEAGLEBONE" H 2550 3150 60  0000 C CNN
F 2 "" H 2300 3300 60  0000 C CNN
F 3 "" H 2300 3300 60  0000 C CNN
	4    2300 3300
	1    0    0    -1  
$EndComp
$Comp
L BEAGLEBONE U1
U 5 1 57DCFF3A
P 5050 3300
F 0 "U1" H 5100 3250 60  0000 C CNN
F 1 "BEAGLEBONE" H 5300 3150 60  0000 C CNN
F 2 "" H 5050 3300 60  0000 C CNN
F 3 "" H 5050 3300 60  0000 C CNN
	5    5050 3300
	1    0    0    -1  
$EndComp
$Comp
L BEAGLEBONE U1
U 3 1 57DCFF80
P 10450 3300
F 0 "U1" H 10500 3250 60  0000 C CNN
F 1 "BEAGLEBONE" H 10700 3150 60  0000 C CNN
F 2 "" H 10450 3300 60  0000 C CNN
F 3 "" H 10450 3300 60  0000 C CNN
	3    10450 3300
	1    0    0    -1  
$EndComp
$Comp
L GND #PWR01
U 1 1 57DD01BB
P 1750 1050
F 0 "#PWR01" H 1750 1050 30  0001 C CNN
F 1 "GND" H 1750 980 30  0001 C CNN
F 2 "" H 1750 1050 60  0000 C CNN
F 3 "" H 1750 1050 60  0000 C CNN
	1    1750 1050
	0    1    1    0   
$EndComp
$Comp
L +3,3V #PWR02
U 1 1 57DD01D2
P 1800 1150
F 0 "#PWR02" H 1800 1110 30  0001 C CNN
F 1 "+3,3V" V 1800 1300 30  0000 C CNN
F 2 "" H 1800 1150 60  0000 C CNN
F 3 "" H 1800 1150 60  0000 C CNN
	1    1800 1150
	0    -1   -1   0   
$EndComp
$Comp
L +5V #PWR03
U 1 1 57DD01F4
P 1800 1250
F 0 "#PWR03" H 1800 1340 20  0001 C CNN
F 1 "+5V" V 1800 1400 30  0000 C CNN
F 2 "" H 1800 1250 60  0000 C CNN
F 3 "" H 1800 1250 60  0000 C CNN
	1    1800 1250
	0    -1   -1   0   
$EndComp
Text Label 1550 2450 0    60   ~ 0
Y Dir BB
Text Label 1550 2550 0    60   ~ 0
Z Dir BB
Text Label 4250 2450 0    60   ~ 0
X Dir BB
Text Label 4250 2150 0    60   ~ 0
X Step BB
Text Label 4250 2250 0    60   ~ 0
Y Step BB
Text Label 4250 2350 0    60   ~ 0
Z Step BB
Text Label 9600 1850 0    60   ~ 0
Estop BB
Text Label 9600 1950 0    60   ~ 0
X Home BB
Text Label 9600 2050 0    60   ~ 0
Y Home BB
Text Label 7050 1550 0    60   ~ 0
Z Eqep B BB
Text Label 9550 1550 0    60   ~ 0
Z Eqep A BB
Text Label 9550 1750 0    60   ~ 0
Z Eqep I BB
Text Label 7050 2550 0    60   ~ 0
Y Eqep I BB
Text Label 7050 2650 0    60   ~ 0
Y Eqep B BB
Text Label 7050 2750 0    60   ~ 0
Y Eqep A BB
Entry Wire Line
	6950 1450 7050 1550
Entry Wire Line
	6950 2450 7050 2550
Entry Wire Line
	6950 2550 7050 2650
Entry Wire Line
	6950 2650 7050 2750
Entry Wire Line
	3950 2450 4050 2350
Entry Wire Line
	3950 2350 4050 2250
Entry Wire Line
	3950 2250 4050 2150
Entry Wire Line
	6700 2950 6800 2850
Text Label 7050 2850 0    60   ~ 0
Uart Tx
Text Label 9500 2950 0    60   ~ 0
Uart FC
Text Label 9500 2850 0    60   ~ 0
Uart Rx
Text Label 1500 2050 0    60   ~ 0
Y Pwm BB
$Comp
L CONN_2 CON1
U 1 1 57DE64DD
P 1050 4100
F 0 "CON1" H 1050 3750 60  0000 C CNN
F 1 "Power" H 1050 3850 60  0000 C CNN
F 2 "" H 1050 4100 60  0000 C CNN
F 3 "" H 1050 4100 60  0000 C CNN
	1    1050 4100
	-1   0    0    1   
$EndComp
$Comp
L CONN_10 CON2
U 1 1 57DE6598
P 1050 5300
F 0 "CON2" H 1050 4600 60  0000 C CNN
F 1 "Machine Inputs" H 1050 4700 60  0000 C CNN
F 2 "" H 1050 5300 60  0000 C CNN
F 3 "" H 1050 5300 60  0000 C CNN
	1    1050 5300
	-1   0    0    1   
$EndComp
$Comp
L GND #PWR04
U 1 1 57DE66A6
P 1600 5800
F 0 "#PWR04" H 1600 5800 30  0001 C CNN
F 1 "GND" H 1600 5730 30  0001 C CNN
F 2 "" H 1600 5800 60  0000 C CNN
F 3 "" H 1600 5800 60  0000 C CNN
	1    1600 5800
	1    0    0    -1  
$EndComp
$Comp
L CONN_6 CON3
U 1 1 57DE672A
P 3050 5300
F 0 "CON3" H 3050 4800 60  0000 C CNN
F 1 "X Driver" H 3050 4900 60  0000 C CNN
F 2 "" H 3050 5300 60  0000 C CNN
F 3 "" H 3050 5300 60  0000 C CNN
	1    3050 5300
	-1   0    0    1   
$EndComp
$Comp
L CONN_6 CON4
U 1 1 57DE6739
P 3050 6200
F 0 "CON4" H 3050 5700 60  0000 C CNN
F 1 "Y Driver" H 3050 5800 60  0000 C CNN
F 2 "" H 3050 6200 60  0000 C CNN
F 3 "" H 3050 6200 60  0000 C CNN
	1    3050 6200
	-1   0    0    1   
$EndComp
$Comp
L CONN_6 CON5
U 1 1 57DE6748
P 3050 7100
F 0 "CON5" H 3050 6600 60  0000 C CNN
F 1 "Z Driver" H 3050 6700 60  0000 C CNN
F 2 "" H 3050 7100 60  0000 C CNN
F 3 "" H 3050 7100 60  0000 C CNN
	1    3050 7100
	-1   0    0    1   
$EndComp
$Comp
L GND #PWR05
U 1 1 57DE67CB
P 1600 4250
F 0 "#PWR05" H 1600 4250 30  0001 C CNN
F 1 "GND" H 1600 4180 30  0001 C CNN
F 2 "" H 1600 4250 60  0000 C CNN
F 3 "" H 1600 4250 60  0000 C CNN
	1    1600 4250
	1    0    0    -1  
$EndComp
$Comp
L +5V #PWR06
U 1 1 57DE67E4
P 3550 6450
F 0 "#PWR06" H 3550 6540 20  0001 C CNN
F 1 "+5V" V 3550 6600 40  0000 C CNN
F 2 "" H 3550 6450 60  0000 C CNN
F 3 "" H 3550 6450 60  0000 C CNN
	1    3550 6450
	0    1    1    0   
$EndComp
Entry Wire Line
	1100 2550 1200 2450
Entry Wire Line
	1100 2650 1200 2550
$Comp
L CONN_5 CON6
U 1 1 57DFC59B
P 4450 5350
F 0 "CON6" H 4450 4900 60  0000 C CNN
F 1 "X H-Bridge" H 4450 5000 60  0000 C CNN
F 2 "" H 4450 5350 60  0000 C CNN
F 3 "" H 4450 5350 60  0000 C CNN
	1    4450 5350
	-1   0    0    1   
$EndComp
$Comp
L CONN_5 CON7
U 1 1 57DFC5B9
P 4450 6200
F 0 "CON7" H 4450 5750 60  0000 C CNN
F 1 "Y H-Bridge" H 4450 5850 60  0000 C CNN
F 2 "" H 4450 6200 60  0000 C CNN
F 3 "" H 4450 6200 60  0000 C CNN
	1    4450 6200
	-1   0    0    1   
$EndComp
$Comp
L CONN_5 CON8
U 1 1 57DFC5C8
P 4450 7100
F 0 "CON8" H 4450 6650 60  0000 C CNN
F 1 "Z H-Bridge" H 4450 6750 60  0000 C CNN
F 2 "" H 4450 7100 60  0000 C CNN
F 3 "" H 4450 7100 60  0000 C CNN
	1    4450 7100
	-1   0    0    1   
$EndComp
$Comp
L CONN_2 CON12
U 1 1 57DFC8D8
P 10150 5600
F 0 "CON12" H 10150 5250 60  0000 C CNN
F 1 "485" H 10150 5350 60  0000 C CNN
F 2 "" H 10150 5600 60  0000 C CNN
F 3 "" H 10150 5600 60  0000 C CNN
	1    10150 5600
	-1   0    0    1   
$EndComp
$Comp
L CONN_8 CON13
U 1 1 57DFC919
P 1050 6600
F 0 "CON13" H 1050 6000 60  0000 C CNN
F 1 "Oled" H 1050 6100 60  0000 C CNN
F 2 "" H 1050 6600 60  0000 C CNN
F 3 "" H 1050 6600 60  0000 C CNN
	1    1050 6600
	-1   0    0    1   
$EndComp
$Comp
L +5V #PWR07
U 1 1 57DFC9E0
P 1550 4850
F 0 "#PWR07" H 1550 4940 20  0001 C CNN
F 1 "+5V" V 1550 5000 40  0000 C CNN
F 2 "" H 1550 4850 60  0000 C CNN
F 3 "" H 1550 4850 60  0000 C CNN
	1    1550 4850
	0    1    1    0   
$EndComp
$Comp
L +5V #PWR08
U 1 1 57DFC9E7
P 1550 4000
F 0 "#PWR08" H 1550 4090 20  0001 C CNN
F 1 "+5V" V 1550 4150 40  0000 C CNN
F 2 "" H 1550 4000 60  0000 C CNN
F 3 "" H 1550 4000 60  0000 C CNN
	1    1550 4000
	0    1    1    0   
$EndComp
$Comp
L GND #PWR09
U 1 1 57DFCA98
P 5050 7350
F 0 "#PWR09" H 5050 7350 30  0001 C CNN
F 1 "GND" H 5050 7280 30  0001 C CNN
F 2 "" H 5050 7350 60  0000 C CNN
F 3 "" H 5050 7350 60  0000 C CNN
	1    5050 7350
	1    0    0    -1  
$EndComp
$Comp
L GND #PWR010
U 1 1 57DFCAA0
P 5050 7350
F 0 "#PWR010" H 5050 7350 30  0001 C CNN
F 1 "GND" H 5050 7280 30  0001 C CNN
F 2 "" H 5050 7350 60  0000 C CNN
F 3 "" H 5050 7350 60  0000 C CNN
	1    5050 7350
	1    0    0    -1  
$EndComp
$Comp
L GND #PWR011
U 1 1 57DFCAE1
P 1600 7000
F 0 "#PWR011" H 1600 7000 30  0001 C CNN
F 1 "GND" H 1600 6930 30  0001 C CNN
F 2 "" H 1600 7000 60  0000 C CNN
F 3 "" H 1600 7000 60  0000 C CNN
	1    1600 7000
	1    0    0    -1  
$EndComp
$Comp
L +5V #PWR012
U 1 1 57DFCAF5
P 3550 5550
F 0 "#PWR012" H 3550 5640 20  0001 C CNN
F 1 "+5V" V 3550 5700 40  0000 C CNN
F 2 "" H 3550 5550 60  0000 C CNN
F 3 "" H 3550 5550 60  0000 C CNN
	1    3550 5550
	0    1    1    0   
$EndComp
$Comp
L +5V #PWR013
U 1 1 57DFCAFC
P 3550 7350
F 0 "#PWR013" H 3550 7440 20  0001 C CNN
F 1 "+5V" V 3550 7500 40  0000 C CNN
F 2 "" H 3550 7350 60  0000 C CNN
F 3 "" H 3550 7350 60  0000 C CNN
	1    3550 7350
	0    1    1    0   
$EndComp
Text Label 9600 2150 0    60   ~ 0
Z Home BB
Text Label 9600 2250 0    60   ~ 0
Probe BB
$Comp
L +5V #PWR014
U 1 1 57DFCD6A
P 3550 5350
F 0 "#PWR014" H 3550 5440 20  0001 C CNN
F 1 "+5V" V 3550 5500 40  0000 C CNN
F 2 "" H 3550 5350 60  0000 C CNN
F 3 "" H 3550 5350 60  0000 C CNN
	1    3550 5350
	0    1    1    0   
$EndComp
$Comp
L +5V #PWR015
U 1 1 57DFCD71
P 3550 6250
F 0 "#PWR015" H 3550 6340 20  0001 C CNN
F 1 "+5V" V 3550 6400 40  0000 C CNN
F 2 "" H 3550 6250 60  0000 C CNN
F 3 "" H 3550 6250 60  0000 C CNN
	1    3550 6250
	0    1    1    0   
$EndComp
$Comp
L +5V #PWR016
U 1 1 57DFCD78
P 3550 7150
F 0 "#PWR016" H 3550 7240 20  0001 C CNN
F 1 "+5V" V 3550 7300 40  0000 C CNN
F 2 "" H 3550 7150 60  0000 C CNN
F 3 "" H 3550 7150 60  0000 C CNN
	1    3550 7150
	0    1    1    0   
$EndComp
Text Label 3400 7250 0    60   ~ 0
Z Step
Text Label 3400 7050 0    60   ~ 0
Z Dir
Text Label 3400 6350 0    60   ~ 0
Y Step
Text Label 3400 6150 0    60   ~ 0
Y Dir
Text Label 3400 5450 0    60   ~ 0
X Step
NoConn ~ 3400 5050
NoConn ~ 3400 5150
NoConn ~ 3400 5950
NoConn ~ 3400 6050
NoConn ~ 3400 6850
NoConn ~ 3400 6950
$Comp
L AGND #PWR017
U 1 1 57DFD07E
P 5100 7050
F 0 "#PWR017" H 5100 7050 40  0001 C CNN
F 1 "AGND" H 5200 7100 40  0000 C CNN
F 2 "" H 5100 7050 60  0000 C CNN
F 3 "" H 5100 7050 60  0000 C CNN
	1    5100 7050
	1    0    0    -1  
$EndComp
Text Label 4850 7100 0    60   ~ 0
Arm
Text Label 4850 7200 0    60   ~ 0
Z Pwm BB
Text Label 4850 6900 0    60   ~ 0
Z Analogue
$Comp
L GND #PWR018
U 1 1 57DFD17F
P 5050 6450
F 0 "#PWR018" H 5050 6450 30  0001 C CNN
F 1 "GND" H 5050 6380 30  0001 C CNN
F 2 "" H 5050 6450 60  0000 C CNN
F 3 "" H 5050 6450 60  0000 C CNN
	1    5050 6450
	1    0    0    -1  
$EndComp
$Comp
L GND #PWR019
U 1 1 57DFD187
P 5050 6450
F 0 "#PWR019" H 5050 6450 30  0001 C CNN
F 1 "GND" H 5050 6380 30  0001 C CNN
F 2 "" H 5050 6450 60  0000 C CNN
F 3 "" H 5050 6450 60  0000 C CNN
	1    5050 6450
	1    0    0    -1  
$EndComp
$Comp
L AGND #PWR020
U 1 1 57DFD18F
P 5100 6150
F 0 "#PWR020" H 5100 6150 40  0001 C CNN
F 1 "AGND" H 5200 6200 40  0000 C CNN
F 2 "" H 5100 6150 60  0000 C CNN
F 3 "" H 5100 6150 60  0000 C CNN
	1    5100 6150
	1    0    0    -1  
$EndComp
Text Label 4850 6200 0    60   ~ 0
Arm
Text Label 4850 6300 0    60   ~ 0
Y Pwm BB
Text Label 4850 6000 0    60   ~ 0
Y Analogue
$Comp
L GND #PWR021
U 1 1 57DFD19B
P 5050 5600
F 0 "#PWR021" H 5050 5600 30  0001 C CNN
F 1 "GND" H 5050 5530 30  0001 C CNN
F 2 "" H 5050 5600 60  0000 C CNN
F 3 "" H 5050 5600 60  0000 C CNN
	1    5050 5600
	1    0    0    -1  
$EndComp
$Comp
L GND #PWR022
U 1 1 57DFD1A3
P 5050 5600
F 0 "#PWR022" H 5050 5600 30  0001 C CNN
F 1 "GND" H 5050 5530 30  0001 C CNN
F 2 "" H 5050 5600 60  0000 C CNN
F 3 "" H 5050 5600 60  0000 C CNN
	1    5050 5600
	1    0    0    -1  
$EndComp
$Comp
L AGND #PWR023
U 1 1 57DFD1AB
P 5100 5300
F 0 "#PWR023" H 5100 5300 40  0001 C CNN
F 1 "AGND" H 5200 5350 40  0000 C CNN
F 2 "" H 5100 5300 60  0000 C CNN
F 3 "" H 5100 5300 60  0000 C CNN
	1    5100 5300
	1    0    0    -1  
$EndComp
Text Label 4850 5450 0    60   ~ 0
X Pwm BB
Text Label 4850 5150 0    60   ~ 0
X Analogue
Text Label 4850 5350 0    60   ~ 0
Arm
Text Label 6700 4500 0    60   ~ 0
X Eqep A
Text Label 6700 4600 0    60   ~ 0
X Eqep B
Text Label 6700 4700 0    60   ~ 0
X Eqep I
Text Label 6700 6100 0    60   ~ 0
Z Eqep A
Text Label 6700 6200 0    60   ~ 0
Z Eqep B
Text Label 6700 6300 0    60   ~ 0
Z Eqep I
Text Label 6700 5300 0    60   ~ 0
Y Eqep A
Text Label 6700 5400 0    60   ~ 0
Y Eqep B
Text Label 6700 5500 0    60   ~ 0
Y Eqep I
$Comp
L +3.3V #PWR024
U 1 1 57DFD673
P 1550 6850
F 0 "#PWR024" H 1550 6810 30  0001 C CNN
F 1 "+3.3V" V 1550 7000 30  0000 C CNN
F 2 "" H 1550 6850 60  0000 C CNN
F 3 "" H 1550 6850 60  0000 C CNN
	1    1550 6850
	0    1    1    0   
$EndComp
Text Label 1400 6650 0    60   ~ 0
DC Select
Text Label 1400 6750 0    60   ~ 0
Display Reset
Text Label 1400 6350 0    60   ~ 0
SCLK
Text Label 1400 6250 0    60   ~ 0
SDOUT
NoConn ~ 1400 6550
NoConn ~ 1400 6450
Text Label 10500 5700 0    60   ~ 0
485 A
Text Label 10500 5500 0    60   ~ 0
485 B
$Comp
L 7404 U2
U 1 1 57DFDF8C
P 3600 4450
F 0 "U2" H 3300 5100 60  0000 L CNN
F 1 "7404" H 3300 4250 60  0000 L CNN
F 2 "~" H 3600 4950 60  0000 C CNN
F 3 "~" H 3600 4950 60  0000 C CNN
	1    3600 4450
	1    0    0    -1  
$EndComp
Text Label 3400 5250 0    60   ~ 0
X Dir
Text Label 2650 3900 0    60   ~ 0
X Step BB
Text Label 2650 4100 0    60   ~ 0
Y Step BB
Text Label 2650 4300 0    60   ~ 0
Z Step BB
Text Label 2800 4000 0    60   ~ 0
X Step
Text Label 2800 4200 0    60   ~ 0
Y Step
Text Label 2800 4400 0    60   ~ 0
Z Step
Entry Wire Line
	2550 4500 2650 4400
Entry Wire Line
	2550 4300 2650 4200
Entry Wire Line
	2550 4100 2650 4000
Entry Wire Line
	2350 3800 2450 3900
Entry Wire Line
	2350 4000 2450 4100
Entry Wire Line
	2350 4200 2450 4300
Text Label 3900 4000 0    60   ~ 0
X Dir BB
Text Label 3900 4200 0    60   ~ 0
Y Dir BB
Text Label 3900 4400 0    60   ~ 0
Z Dir BB
Text Label 3900 4100 0    60   ~ 0
X Dir
Text Label 3900 4300 0    60   ~ 0
Y Dir
Text Label 3900 4500 0    60   ~ 0
Z Dir
Entry Wire Line
	4450 4000 4550 3900
Entry Wire Line
	4450 4200 4550 4100
Entry Wire Line
	4450 4400 4550 4300
Entry Wire Line
	3950 2550 4050 2450
Entry Wire Line
	4300 4100 4400 4200
Entry Wire Line
	4300 4300 4400 4400
Entry Wire Line
	4300 4500 4400 4600
Entry Wire Line
	3700 5450 3800 5350
Entry Wire Line
	3700 7250 3800 7150
Entry Wire Line
	3700 7050 3800 6950
Entry Wire Line
	3700 6150 3800 6050
Entry Wire Line
	3700 5250 3800 5150
Entry Wire Line
	3700 6350 3800 6250
Text Label 1500 2750 0    60   ~ 0
X Analogue
Text Label 1500 2950 0    60   ~ 0
Z Analogue
Text Label 1500 2850 0    60   ~ 0
Y Analogue
Entry Wire Line
	1400 2950 1500 2850
Entry Wire Line
	1400 3050 1500 2950
Text Label 4400 1850 0    60   ~ 0
SDOUT
Text Label 4400 2050 0    60   ~ 0
SCLK
$Comp
L RR9 RR1
U 1 1 57DFF650
P 7750 3650
F 0 "RR1" H 7800 4250 70  0000 C CNN
F 1 "220" V 7780 3650 70  0000 C CNN
F 2 "~" H 7750 3650 60  0000 C CNN
F 3 "~" H 7750 3650 60  0000 C CNN
	1    7750 3650
	0    -1   -1   0   
$EndComp
$Comp
L RR9 RR2
U 1 1 57DFF75F
P 9250 3650
F 0 "RR2" H 9300 4250 70  0000 C CNN
F 1 "1K" V 9280 3650 70  0000 C CNN
F 2 "~" H 9250 3650 60  0000 C CNN
F 3 "~" H 9250 3650 60  0000 C CNN
	1    9250 3650
	0    -1   -1   0   
$EndComp
$Comp
L MCT61 U3
U 1 1 57E0013B
P 8600 4350
F 0 "U3" H 8390 4540 40  0000 C CNN
F 1 "MCT61" H 8350 4050 40  0001 C CNN
F 2 "DIP8" H 8500 4050 30  0001 C CIN
F 3 "~" H 9100 4400 60  0000 C CNN
	1    8600 4350
	1    0    0    -1  
$EndComp
$Comp
L MCT61 U4
U 1 1 57E00167
P 8600 4850
F 0 "U4" H 8390 5040 40  0000 C CNN
F 1 "MCT61" H 8350 4550 40  0001 C CNN
F 2 "DIP8" H 8500 4550 30  0001 C CIN
F 3 "~" H 9100 4900 60  0000 C CNN
	1    8600 4850
	1    0    0    -1  
$EndComp
$Comp
L MCT61 U5
U 1 1 57E0016D
P 8600 5350
F 0 "U5" H 8390 5540 40  0000 C CNN
F 1 "MCT61" H 8350 5050 40  0001 C CNN
F 2 "DIP8" H 8500 5050 30  0001 C CIN
F 3 "~" H 9100 5400 60  0000 C CNN
	1    8600 5350
	1    0    0    -1  
$EndComp
$Comp
L MCT61 U7
U 1 1 57E0019D
P 8600 6350
F 0 "U7" H 8390 6540 40  0000 C CNN
F 1 "MCT61" H 8400 6050 40  0000 C CNN
F 2 "DIP8" H 8500 6050 30  0001 C CIN
F 3 "~" H 9100 6400 60  0000 C CNN
	1    8600 6350
	1    0    0    -1  
$EndComp
$Comp
L MCT61 U6
U 1 1 57E001AA
P 8600 5850
F 0 "U6" H 8390 6040 40  0000 C CNN
F 1 "MCT61" H 8350 5550 40  0001 C CNN
F 2 "DIP8" H 8500 5550 30  0001 C CIN
F 3 "~" H 9100 5900 60  0000 C CNN
	1    8600 5850
	1    0    0    -1  
$EndComp
Entry Wire Line
	9450 1850 9550 1750
Entry Wire Line
	9450 1650 9550 1550
Text Label 8600 4850 0    60   ~ 0
X Eqep A BB
Text Label 8600 4450 0    60   ~ 0
X Eqep B BB
Text Label 8600 4350 0    60   ~ 0
X Eqep I BB
Text Label 8600 5450 0    60   ~ 0
Y Eqep A BB
Text Label 8600 5350 0    60   ~ 0
Y Eqep B BB
Text Label 8600 4950 0    60   ~ 0
Y Eqep I BB
Text Label 8600 6350 0    60   ~ 0
Z Eqep A BB
Text Label 8600 5850 0    60   ~ 0
Z Eqep B BB
Text Label 8600 5950 0    60   ~ 0
Z Eqep I BB
$Comp
L SP3485 U8
U 1 1 57E05295
P 10600 4650
F 0 "U8" H 10400 4800 60  0000 C CNN
F 1 "SP3485" H 10500 4300 60  0000 C CNN
F 2 "~" H 10600 4650 60  0000 C CNN
F 3 "~" H 10600 4650 60  0000 C CNN
	1    10600 4650
	1    0    0    -1  
$EndComp
Text Label 9900 4700 0    60   ~ 0
Uart FC
Text Label 9900 4900 0    60   ~ 0
Uart Tx
Text Label 9900 4600 0    60   ~ 0
Uart Rx
$Comp
L +3.3V #PWR025
U 1 1 57E05DDD
P 11000 4600
F 0 "#PWR025" H 11000 4560 30  0001 C CNN
F 1 "+3.3V" V 11000 4750 30  0000 C CNN
F 2 "" H 11000 4600 60  0000 C CNN
F 3 "" H 11000 4600 60  0000 C CNN
	1    11000 4600
	0    1    1    0   
$EndComp
$Comp
L GND #PWR026
U 1 1 57E05DE6
P 10900 4950
F 0 "#PWR026" H 10900 4950 30  0001 C CNN
F 1 "GND" H 10900 4880 30  0001 C CNN
F 2 "" H 10900 4950 60  0000 C CNN
F 3 "" H 10900 4950 60  0000 C CNN
	1    10900 4950
	1    0    0    -1  
$EndComp
NoConn ~ 1950 1350
NoConn ~ 1950 1450
NoConn ~ 1950 1850
NoConn ~ 1950 1950
NoConn ~ 1950 2150
NoConn ~ 4700 1350
NoConn ~ 4700 1450
NoConn ~ 4700 1950
NoConn ~ 4700 2550
NoConn ~ 7600 1350
NoConn ~ 7600 1450
NoConn ~ 7600 1650
NoConn ~ 7600 1150
NoConn ~ 7600 1250
NoConn ~ 7600 2150
NoConn ~ 7600 2250
NoConn ~ 7600 3150
NoConn ~ 10100 3150
NoConn ~ 10100 2750
NoConn ~ 10100 2650
NoConn ~ 10100 1450
NoConn ~ 10100 1350
NoConn ~ 10100 1250
NoConn ~ 10100 1150
NoConn ~ 7600 3250
NoConn ~ 7600 3050
NoConn ~ 7600 2350
$Comp
L NPN Q2
U 1 1 57E0522A
P 5500 4500
F 0 "Q2" H 5500 4350 50  0000 R CNN
F 1 "NPN" H 5500 4650 50  0000 R CNN
F 2 "~" H 5500 4500 60  0000 C CNN
F 3 "~" H 5500 4500 60  0000 C CNN
	1    5500 4500
	1    0    0    -1  
$EndComp
$Comp
L NPN Q1
U 1 1 57E05279
P 5200 4750
F 0 "Q1" H 5200 4600 50  0000 R CNN
F 1 "NPN" H 5200 4900 50  0000 R CNN
F 2 "~" H 5200 4750 60  0000 C CNN
F 3 "~" H 5200 4750 60  0000 C CNN
	1    5200 4750
	1    0    0    -1  
$EndComp
$Comp
L R R2
U 1 1 57E05288
P 5300 4200
F 0 "R2" V 5380 4200 40  0000 C CNN
F 1 "R" V 5307 4201 40  0000 C CNN
F 2 "~" V 5230 4200 30  0000 C CNN
F 3 "~" H 5300 4200 30  0000 C CNN
	1    5300 4200
	1    0    0    -1  
$EndComp
$Comp
L R R3
U 1 1 57E052A1
P 5600 4000
F 0 "R3" V 5680 4000 40  0000 C CNN
F 1 "R" V 5607 4001 40  0000 C CNN
F 2 "~" V 5530 4000 30  0000 C CNN
F 3 "~" H 5600 4000 30  0000 C CNN
	1    5600 4000
	1    0    0    -1  
$EndComp
$Comp
L R R1
U 1 1 57E052B0
P 5000 4400
F 0 "R1" V 5080 4400 40  0000 C CNN
F 1 "R" V 5007 4401 40  0000 C CNN
F 2 "~" V 4930 4400 30  0000 C CNN
F 3 "~" H 5000 4400 30  0000 C CNN
	1    5000 4400
	1    0    0    -1  
$EndComp
$Comp
L GND #PWR027
U 1 1 57E053BB
P 5450 5000
F 0 "#PWR027" H 5450 5000 30  0001 C CNN
F 1 "GND" H 5450 4930 30  0001 C CNN
F 2 "" H 5450 5000 60  0000 C CNN
F 3 "" H 5450 5000 60  0000 C CNN
	1    5450 5000
	1    0    0    -1  
$EndComp
Text Label 5000 3850 3    60   ~ 0
Arm BB
Entry Wire Line
	4100 1850 4200 1750
Entry Bus Bus
	4100 3400 4200 3500
Entry Bus Bus
	6000 3500 6100 3600
Entry Bus Bus
	3700 4700 3800 4800
Entry Bus Bus
	2250 3700 2350 3800
Entry Wire Line
	6000 5150 6100 5050
Entry Wire Line
	6000 5450 6100 5350
Entry Wire Line
	6000 6300 6100 6200
Entry Wire Line
	6000 6000 6100 5900
Entry Wire Line
	6000 6900 6100 6800
Entry Wire Line
	6000 7200 6100 7100
$Comp
L AGND #PWR028
U 1 1 57E0823F
P 4500 2700
F 0 "#PWR028" H 4500 2700 40  0001 C CNN
F 1 "AGND" H 4500 2630 50  0000 C CNN
F 2 "" H 4500 2700 60  0000 C CNN
F 3 "" H 4500 2700 60  0000 C CNN
	1    4500 2700
	1    0    0    -1  
$EndComp
Text Label 9600 2350 0    60   ~ 0
Spare 1
Text Label 9600 2450 0    60   ~ 0
Spare 2
Text Label 9600 2550 0    60   ~ 0
Spare 3
Text Label 1400 5650 0    60   ~ 0
Estop BB
Text Label 1400 5550 0    60   ~ 0
X Home BB
Text Label 1400 5450 0    60   ~ 0
Y Home BB
Text Label 1400 5350 0    60   ~ 0
Z Home BB
Text Label 1400 5250 0    60   ~ 0
Probe BB
Text Label 1400 5150 0    60   ~ 0
Spare 1
Text Label 1400 5050 0    60   ~ 0
Spare 2
Text Label 1400 4950 0    60   ~ 0
Spare 3
Entry Wire Line
	8950 2450 9050 2550
Entry Wire Line
	8950 2350 9050 2450
Entry Wire Line
	8950 2250 9050 2350
Entry Wire Line
	8950 2150 9050 2250
Entry Wire Line
	8950 2050 9050 2150
Entry Wire Line
	8950 1950 9050 2050
Entry Wire Line
	8950 1850 9050 1950
Entry Wire Line
	8950 1750 9050 1850
NoConn ~ 1950 1550
Text Label 7150 1750 0    60   ~ 0
DC Select
Text Label 7000 1850 0    60   ~ 0
Display Reset
Entry Wire Line
	3450 1750 3550 1850
Entry Wire Line
	3450 1950 3550 2050
Entry Wire Line
	2000 6250 2100 6150
Entry Wire Line
	2000 6350 2100 6250
Entry Wire Line
	2000 6650 2100 6550
Entry Wire Line
	2000 6750 2100 6650
NoConn ~ 10100 3050
Entry Wire Line
	9800 4800 9900 4900
Entry Wire Line
	9800 4600 9900 4700
Entry Wire Line
	9800 4500 9900 4600
Entry Wire Line
	9650 4000 9750 4100
Entry Wire Line
	9550 4000 9650 4100
Entry Wire Line
	9450 4000 9550 4100
Entry Wire Line
	9350 4000 9450 4100
Entry Wire Line
	9250 4000 9350 4100
Entry Wire Line
	9150 4000 9250 4100
Entry Wire Line
	9050 4000 9150 4100
Entry Wire Line
	8950 4000 9050 4100
Entry Wire Line
	8850 4000 8950 4100
Entry Wire Line
	6950 2350 7050 2450
Text Label 7050 2450 0    60   ~ 0
Y Eqep I BB
Entry Wire Line
	9450 1750 9550 1650
Text Label 9550 1650 0    60   ~ 0
Z Eqep I BB
Text Label 1350 2350 0    60   ~ 0
X Eqep B BB
Text Label 1400 3050 0    60   ~ 0
X Eqep I BB
Text Label 1350 2250 0    60   ~ 0
X Eqep I BB
Entry Wire Line
	1900 4950 2000 4850
Entry Wire Line
	1900 5050 2000 4950
Entry Wire Line
	1900 5150 2000 5050
Entry Wire Line
	1900 5250 2000 5150
Entry Wire Line
	1900 5350 2000 5250
Entry Wire Line
	1900 5450 2000 5350
Entry Wire Line
	1900 5550 2000 5450
Entry Wire Line
	1900 5650 2000 5550
Entry Wire Line
	1150 2950 1250 3050
Entry Wire Line
	1150 2250 1250 2350
Entry Wire Line
	1150 2150 1250 2250
Entry Wire Line
	3550 2950 3650 3050
Entry Bus Bus
	3550 900  3650 800 
Entry Bus Bus
	6950 900  7050 800 
Entry Wire Line
	6000 3700 6100 3600
NoConn ~ 10100 3250
$Comp
L +3.3V #PWR029
U 1 1 57E12C3E
P 5750 3750
F 0 "#PWR029" H 5750 3710 30  0001 C CNN
F 1 "+3.3V" V 5750 3900 30  0000 C CNN
F 2 "" H 5750 3750 60  0000 C CNN
F 3 "" H 5750 3750 60  0000 C CNN
	1    5750 3750
	0    1    1    0   
$EndComp
$Comp
L C C1
U 1 1 57E131F7
P 4100 3800
F 0 "C1" V 4150 3900 40  0000 L CNN
F 1 "0.1uF" V 4150 3600 40  0000 L CNN
F 2 "~" H 4138 3650 30  0000 C CNN
F 3 "~" H 4100 3800 60  0000 C CNN
	1    4100 3800
	0    -1   -1   0   
$EndComp
$Comp
L GND #PWR030
U 1 1 57E1333A
P 4300 3800
F 0 "#PWR030" H 4300 3800 30  0001 C CNN
F 1 "GND" H 4300 3730 30  0001 C CNN
F 2 "" H 4300 3800 60  0000 C CNN
F 3 "" H 4300 3800 60  0000 C CNN
	1    4300 3800
	0    -1   -1   0   
$EndComp
$Comp
L +5V #PWR031
U 1 1 57E13349
P 4250 3900
F 0 "#PWR031" H 4250 3990 20  0001 C CNN
F 1 "+5V" V 4250 4050 30  0000 C CNN
F 2 "" H 4250 3900 60  0000 C CNN
F 3 "" H 4250 3900 60  0000 C CNN
	1    4250 3900
	0    1    1    0   
$EndComp
Wire Wire Line
	1750 1050 1950 1050
Wire Wire Line
	1950 1150 1800 1150
Wire Wire Line
	1950 1250 1800 1250
Wire Wire Line
	4050 2150 4700 2150
Wire Wire Line
	4050 2350 4700 2350
Wire Wire Line
	4050 2450 4700 2450
Wire Wire Line
	9050 1850 10100 1850
Wire Wire Line
	9050 1950 10100 1950
Wire Wire Line
	9050 2050 10100 2050
Wire Wire Line
	7050 1550 7600 1550
Wire Wire Line
	9550 1550 10100 1550
Wire Wire Line
	9550 1750 10100 1750
Wire Wire Line
	7050 2550 7600 2550
Wire Wire Line
	7050 2650 7600 2650
Wire Wire Line
	7050 2750 7600 2750
Wire Wire Line
	6800 2850 7600 2850
Wire Wire Line
	4200 1750 4700 1750
Wire Wire Line
	1400 5750 1600 5750
Wire Wire Line
	1600 5750 1600 5800
Wire Wire Line
	1400 4200 1600 4200
Wire Wire Line
	1600 4200 1600 4250
Wire Wire Line
	3550 6450 3400 6450
Wire Wire Line
	1950 2850 1500 2850
Wire Wire Line
	1500 2950 1950 2950
Wire Wire Line
	1550 4850 1400 4850
Wire Wire Line
	1550 4000 1400 4000
Wire Wire Line
	4850 7300 5050 7300
Wire Wire Line
	5050 7300 5050 7350
Wire Wire Line
	8750 4000 8750 4100
Wire Wire Line
	1400 6950 1600 6950
Wire Wire Line
	1600 6950 1600 7000
Wire Wire Line
	3550 5550 3400 5550
Wire Wire Line
	3550 7350 3400 7350
Wire Wire Line
	9050 2550 10100 2550
Wire Wire Line
	9050 2450 10100 2450
Wire Wire Line
	9050 2350 10100 2350
Wire Wire Line
	9050 2250 10100 2250
Wire Wire Line
	9050 2150 10100 2150
Wire Wire Line
	3550 5350 3400 5350
Wire Wire Line
	3550 6250 3400 6250
Wire Wire Line
	3550 7150 3400 7150
Wire Wire Line
	5100 7000 5100 7050
Wire Wire Line
	4850 6400 5050 6400
Wire Wire Line
	5050 6400 5050 6450
Wire Wire Line
	5100 6100 5100 6150
Wire Wire Line
	4850 5550 5050 5550
Wire Wire Line
	5050 5550 5050 5600
Wire Wire Line
	5100 5250 5100 5300
Wire Wire Line
	4850 7200 6000 7200
Wire Wire Line
	4850 6300 6000 6300
Wire Wire Line
	4850 5450 6000 5450
Wire Wire Line
	1400 6850 1550 6850
Wire Wire Line
	1400 6650 2000 6650
Wire Wire Line
	1400 6350 2000 6350
Wire Wire Line
	1400 6250 2000 6250
Wire Wire Line
	1400 6750 2000 6750
Wire Wire Line
	2450 3900 3100 3900
Wire Wire Line
	2650 4000 3100 4000
Wire Wire Line
	2450 4100 3100 4100
Wire Wire Line
	2650 4200 3100 4200
Wire Wire Line
	2450 4300 3100 4300
Wire Wire Line
	2650 4400 3100 4400
Wire Wire Line
	3900 4000 4450 4000
Wire Wire Line
	3900 4100 4300 4100
Wire Wire Line
	3900 4200 4450 4200
Wire Wire Line
	3900 4300 4300 4300
Wire Wire Line
	3900 4400 4450 4400
Wire Wire Line
	3900 4500 4300 4500
Wire Bus Line
	2550 4100 2550 4600
Wire Wire Line
	1950 2450 1200 2450
Wire Wire Line
	1200 2550 1950 2550
Wire Wire Line
	4050 2250 4700 2250
Wire Bus Line
	2550 4700 2550 4550
Wire Bus Line
	3800 7150 3800 4700
Wire Wire Line
	3400 5450 3700 5450
Wire Wire Line
	3400 6350 3700 6350
Wire Wire Line
	3400 7250 3700 7250
Wire Wire Line
	4850 5250 5100 5250
Wire Wire Line
	4850 6100 5100 6100
Wire Wire Line
	4850 7000 5100 7000
Wire Wire Line
	4850 5150 6000 5150
Wire Wire Line
	4850 6000 6000 6000
Wire Wire Line
	4850 6900 6000 6900
Wire Wire Line
	4700 1850 3550 1850
Wire Wire Line
	4700 2050 3550 2050
Wire Wire Line
	8850 4000 8850 4350
Wire Wire Line
	8500 4100 8500 4000
Wire Wire Line
	9050 4000 9050 4850
Wire Wire Line
	9250 4000 9250 5350
Wire Wire Line
	9450 4000 9450 5850
Wire Wire Line
	9650 4000 9650 6350
Wire Wire Line
	7150 5500 6700 5500
Wire Wire Line
	6700 5300 7550 5300
Wire Bus Line
	10050 3300 9450 3300
Wire Wire Line
	10850 4700 11000 4700
Wire Wire Line
	11000 4700 11000 5500
Wire Wire Line
	11000 5500 10500 5500
Wire Wire Line
	10500 5700 10950 5700
Wire Wire Line
	10950 5700 10950 4800
Wire Wire Line
	10950 4800 10850 4800
Wire Wire Line
	10250 4900 9900 4900
Wire Wire Line
	10250 4800 10200 4800
Wire Wire Line
	10200 4800 10200 4700
Wire Wire Line
	9900 4700 10250 4700
Connection ~ 10200 4700
Wire Wire Line
	9900 4600 10250 4600
Wire Bus Line
	9800 3500 6700 3500
Wire Bus Line
	6700 3500 6700 2950
Wire Wire Line
	10850 4600 11000 4600
Wire Wire Line
	10850 4900 10900 4900
Wire Wire Line
	10900 4900 10900 4950
Wire Wire Line
	4850 5350 5800 5350
Wire Wire Line
	4850 6200 5800 6200
Wire Wire Line
	4850 7100 5800 7100
Wire Wire Line
	5600 4700 5600 4950
Wire Wire Line
	5450 5000 5450 4950
Connection ~ 5450 4950
Wire Wire Line
	5600 4300 5800 4300
Wire Wire Line
	5800 4300 5800 7200
Connection ~ 5800 6200
Connection ~ 5800 5350
Wire Bus Line
	1150 800  9450 800 
Wire Bus Line
	9450 800  9450 3300
Wire Bus Line
	3950 2250 3950 3700
Wire Bus Line
	4550 3700 4550 4300
Wire Bus Line
	4100 1650 4100 3400
Wire Wire Line
	3400 5250 3700 5250
Wire Wire Line
	3400 6150 3700 6150
Wire Wire Line
	3400 7050 3700 7050
Wire Bus Line
	4400 4700 4400 4200
Wire Bus Line
	2550 4700 3700 4700
Wire Bus Line
	3800 4700 4400 4700
Wire Bus Line
	1400 3500 6000 3500
Wire Wire Line
	4700 2650 4500 2650
Wire Wire Line
	4500 2650 4500 2700
Wire Wire Line
	1400 4950 1900 4950
Wire Wire Line
	1400 5050 1900 5050
Wire Wire Line
	1900 5150 1400 5150
Wire Wire Line
	1400 5250 1900 5250
Wire Wire Line
	1400 5350 1900 5350
Wire Wire Line
	1400 5450 1900 5450
Wire Wire Line
	1400 5550 1900 5550
Wire Wire Line
	1400 5650 1900 5650
Wire Bus Line
	8950 600  8950 2450
Wire Bus Line
	8950 600  650  600 
Wire Wire Line
	6350 1750 7600 1750
Wire Wire Line
	6350 1850 7600 1850
Wire Bus Line
	800  700  6250 700 
Wire Bus Line
	9800 3500 9800 4800
Wire Bus Line
	8950 4100 10050 4100
Wire Bus Line
	10050 4100 10050 3300
Wire Wire Line
	7600 2450 7050 2450
Wire Wire Line
	9550 1650 10100 1650
Wire Wire Line
	3650 3050 4700 3050
Wire Wire Line
	1250 3050 1950 3050
Wire Wire Line
	1250 2350 1950 2350
Wire Wire Line
	1950 2250 1250 2250
Wire Bus Line
	2350 3800 2350 4200
Wire Bus Line
	1100 3700 4550 3700
Wire Bus Line
	1400 2150 1400 3500
Wire Bus Line
	1100 2550 1100 3700
Wire Bus Line
	650  600  650  4550
Wire Bus Line
	650  4550 2000 4550
Wire Bus Line
	2000 4550 2000 5550
Wire Bus Line
	2100 6650 2100 4400
Wire Bus Line
	2100 4400 800  4400
Wire Bus Line
	800  4400 800  700 
Wire Bus Line
	1150 2950 1150 800 
Wire Bus Line
	3550 2950 3550 900 
Wire Bus Line
	6950 900  6950 2650
Wire Wire Line
	5000 3700 6000 3700
Wire Wire Line
	3900 3900 3900 3800
Wire Wire Line
	4250 3900 3900 3900
Wire Wire Line
	3100 4500 3000 4500
Wire Wire Line
	3000 4500 3000 4550
$Comp
L GND #PWR032
U 1 1 57E136DA
P 3000 4550
F 0 "#PWR032" H 3000 4550 30  0001 C CNN
F 1 "GND" H 3000 4480 30  0001 C CNN
F 2 "" H 3000 4550 60  0000 C CNN
F 3 "" H 3000 4550 60  0000 C CNN
	1    3000 4550
	1    0    0    -1  
$EndComp
Text Label 4400 1550 0    60   ~ 0
Arm BB
$Comp
L C C2
U 1 1 57E13813
P 10850 4400
F 0 "C2" H 10850 4500 40  0000 L CNN
F 1 "0.1uF" H 10856 4315 40  0000 L CNN
F 2 "~" H 10888 4250 30  0000 C CNN
F 3 "~" H 10850 4400 60  0000 C CNN
	1    10850 4400
	1    0    0    -1  
$EndComp
$Comp
L GND #PWR033
U 1 1 57E13822
P 10950 4200
F 0 "#PWR033" H 10950 4200 30  0001 C CNN
F 1 "GND" H 10950 4130 30  0001 C CNN
F 2 "" H 10950 4200 60  0000 C CNN
F 3 "" H 10950 4200 60  0000 C CNN
	1    10950 4200
	1    0    0    -1  
$EndComp
Wire Wire Line
	10850 4200 10850 4150
Wire Wire Line
	10850 4150 10950 4150
Wire Wire Line
	10950 4150 10950 4200
Wire Wire Line
	5600 4950 5300 4950
Wire Wire Line
	5600 4300 5600 4250
Wire Wire Line
	5300 4450 5300 4550
Connection ~ 5300 4500
Wire Wire Line
	5000 4750 5000 4650
Wire Wire Line
	5000 4150 5000 3700
Wire Wire Line
	5300 3950 5300 3750
Wire Wire Line
	5300 3750 5750 3750
Connection ~ 5600 3750
$Comp
L GND #PWR034
U 1 1 57DFCABE
P 8700 6650
F 0 "#PWR034" H 8700 6650 30  0001 C CNN
F 1 "GND" H 8700 6580 30  0001 C CNN
F 2 "" H 8700 6650 60  0000 C CNN
F 3 "" H 8700 6650 60  0000 C CNN
	1    8700 6650
	1    0    0    -1  
$EndComp
Wire Wire Line
	8750 4100 8500 4100
Wire Wire Line
	8850 4350 8600 4350
Wire Wire Line
	8600 4450 8950 4450
Wire Wire Line
	8950 4450 8950 4000
Wire Wire Line
	9650 6350 8600 6350
Wire Wire Line
	8600 5950 9550 5950
Wire Wire Line
	9550 5950 9550 4000
Wire Wire Line
	9450 5850 8600 5850
Wire Wire Line
	8600 5450 9350 5450
Wire Wire Line
	9350 5450 9350 4000
Wire Wire Line
	9250 5350 8600 5350
Wire Wire Line
	9150 4950 9150 4000
Wire Wire Line
	9050 4850 8600 4850
Wire Wire Line
	8600 4950 9150 4950
Wire Wire Line
	8600 4250 8700 4250
Wire Wire Line
	8700 4250 8700 6650
Wire Wire Line
	8600 6250 8700 6250
Connection ~ 8700 6250
Wire Wire Line
	8600 6050 8700 6050
Connection ~ 8700 6050
Wire Wire Line
	8600 5750 8700 5750
Connection ~ 8700 5750
Wire Wire Line
	8600 5050 8700 5050
Connection ~ 8700 5050
Wire Wire Line
	8600 4750 8700 4750
Connection ~ 8700 4750
Wire Wire Line
	8600 4550 8700 4550
Connection ~ 8700 4550
$Comp
L GND #PWR035
U 1 1 57E1796F
P 4500 1050
F 0 "#PWR035" H 4500 1050 30  0001 C CNN
F 1 "GND" H 4500 980 30  0001 C CNN
F 2 "" H 4500 1050 60  0000 C CNN
F 3 "" H 4500 1050 60  0000 C CNN
	1    4500 1050
	0    1    1    0   
$EndComp
$Comp
L +3,3V #PWR036
U 1 1 57E17975
P 4550 1150
F 0 "#PWR036" H 4550 1110 30  0001 C CNN
F 1 "+3,3V" V 4550 1300 30  0000 C CNN
F 2 "" H 4550 1150 60  0000 C CNN
F 3 "" H 4550 1150 60  0000 C CNN
	1    4550 1150
	0    -1   -1   0   
$EndComp
$Comp
L +5V #PWR037
U 1 1 57E1797B
P 4550 1250
F 0 "#PWR037" H 4550 1340 20  0001 C CNN
F 1 "+5V" V 4550 1400 30  0000 C CNN
F 2 "" H 4550 1250 60  0000 C CNN
F 3 "" H 4550 1250 60  0000 C CNN
	1    4550 1250
	0    -1   -1   0   
$EndComp
Wire Wire Line
	4500 1050 4700 1050
Wire Wire Line
	4700 1150 4550 1150
Wire Wire Line
	4700 1250 4550 1250
Wire Wire Line
	8600 5550 8700 5550
Connection ~ 8700 5550
Wire Wire Line
	8600 5250 8700 5250
Connection ~ 8700 5250
NoConn ~ 7600 2950
Wire Wire Line
	10100 2950 9300 2950
Wire Wire Line
	10100 2850 9300 2850
Entry Wire Line
	9200 2950 9300 2850
Entry Wire Line
	9200 3050 9300 2950
Entry Bus Bus
	9200 3400 9300 3500
Wire Bus Line
	9200 2950 9200 3400
$Comp
L +3.3V #PWR038
U 1 1 57E17FF8
P 8500 4000
F 0 "#PWR038" H 8500 3960 30  0001 C CNN
F 1 "+3.3V" H 8500 4110 30  0000 C CNN
F 2 "" H 8500 4000 60  0000 C CNN
F 3 "" H 8500 4000 60  0000 C CNN
	1    8500 4000
	1    0    0    -1  
$EndComp
Entry Wire Line
	6250 1750 6350 1850
Entry Wire Line
	6250 1650 6350 1750
Wire Bus Line
	6250 700  6250 1750
Entry Bus Bus
	3350 700  3450 800 
Wire Bus Line
	3450 800  3450 1950
NoConn ~ 1950 1650
NoConn ~ 1950 1750
Wire Wire Line
	1950 2750 1500 2750
Entry Wire Line
	1400 2850 1500 2750
Text Label 4150 3050 0    60   ~ 0
X Eqep A BB
Wire Wire Line
	6700 4700 7350 4700
$Comp
L CONN_2 CON14
U 1 1 57E19509
P 6300 3900
F 0 "CON14" H 6300 3650 40  0000 C CNN
F 1 "Encoder Power" H 6300 3700 40  0000 C CNN
F 2 "" H 6300 3900 60  0000 C CNN
F 3 "" H 6300 3900 60  0000 C CNN
	1    6300 3900
	-1   0    0    1   
$EndComp
$Comp
L BEAGLEBONE U1
U 2 1 57DCFF71
P 7950 3350
F 0 "U1" H 8000 3300 60  0000 C CNN
F 1 "BEAGLEBONE" H 8200 3200 60  0000 C CNN
F 2 "" H 7950 3350 60  0000 C CNN
F 3 "" H 7950 3350 60  0000 C CNN
	2    7950 3350
	1    0    0    -1  
$EndComp
Wire Wire Line
	7150 4950 7150 5500
Wire Wire Line
	7350 4000 7350 4250
Wire Wire Line
	7350 4250 8250 4250
Wire Wire Line
	7450 4000 7450 4550
Wire Wire Line
	7550 4000 7550 4750
Wire Wire Line
	7550 4750 8250 4750
Wire Wire Line
	7650 4000 7650 5050
Wire Wire Line
	7750 4000 7750 5250
Wire Wire Line
	7750 5250 8250 5250
Wire Wire Line
	7850 4000 7850 5550
Wire Wire Line
	7950 4000 7950 5750
Wire Wire Line
	7950 5750 8250 5750
Wire Wire Line
	8050 4000 8050 6050
Wire Wire Line
	8150 4000 8150 6250
Wire Wire Line
	8150 6250 8250 6250
Wire Wire Line
	6700 4500 7300 4500
Wire Wire Line
	4700 1550 4200 1550
Entry Wire Line
	4100 1650 4200 1550
NoConn ~ 7600 2050
Wire Wire Line
	6700 6200 7200 6200
Wire Wire Line
	7200 6200 7200 5850
Wire Wire Line
	7200 5850 8250 5850
Text Label 4250 1650 0    60   ~ 0
Z Pwm BB
Wire Wire Line
	1950 2050 1500 2050
Entry Wire Line
	1400 2150 1500 2050
Wire Wire Line
	4200 1650 4700 1650
Entry Wire Line
	4100 1750 4200 1650
Text Label 4250 1750 0    60   ~ 0
X Pwm BB
NoConn ~ 7600 1950
Wire Bus Line
	6100 3600 6100 7100
$Comp
L CONN_5 CON9
U 1 1 57E1CBC1
P 6300 4600
F 0 "CON9" H 6300 4200 50  0000 C CNN
F 1 "X Eqep" H 6300 4300 50  0000 C CNN
F 2 "" H 6300 4600 60  0000 C CNN
F 3 "" H 6300 4600 60  0000 C CNN
	1    6300 4600
	-1   0    0    1   
$EndComp
$Comp
L CONN_5 CON10
U 1 1 57E1CBD0
P 6300 5400
F 0 "CON10" H 6300 5000 50  0000 C CNN
F 1 "Y Eqep" H 6300 5100 50  0000 C CNN
F 2 "" H 6300 5400 60  0000 C CNN
F 3 "" H 6300 5400 60  0000 C CNN
	1    6300 5400
	-1   0    0    1   
$EndComp
$Comp
L CONN_5 CON11
U 1 1 57E1CBF3
P 6300 6200
F 0 "CON11" H 6300 5800 50  0000 C CNN
F 1 "Z Eqep" H 6300 5900 50  0000 C CNN
F 2 "" H 6300 6200 60  0000 C CNN
F 3 "" H 6300 6200 60  0000 C CNN
	1    6300 6200
	-1   0    0    1   
$EndComp
Wire Wire Line
	6700 4400 7250 4400
Wire Wire Line
	7250 5200 6700 5200
Connection ~ 7250 4400
Wire Wire Line
	7250 6000 6700 6000
Connection ~ 7250 5200
Wire Wire Line
	6700 5400 7650 5400
Wire Wire Line
	7650 5400 7650 5350
Wire Wire Line
	7650 5350 8250 5350
Wire Wire Line
	6650 3800 7150 3800
Wire Wire Line
	7050 4800 6700 4800
Wire Wire Line
	7050 5600 6700 5600
Connection ~ 7050 4800
Wire Wire Line
	7050 6400 6700 6400
Connection ~ 7050 5600
Text Label 6650 3800 0    60   ~ 0
Enc 5v
Text Label 6650 4000 0    60   ~ 0
Enc GND
Wire Wire Line
	6700 6100 7250 6100
Wire Wire Line
	7250 6100 7250 6350
Wire Wire Line
	7250 6350 8250 6350
Wire Wire Line
	7350 6300 6700 6300
Wire Wire Line
	7350 5950 7350 6300
Wire Wire Line
	7300 4500 7300 4850
Wire Wire Line
	7300 4850 8250 4850
Wire Wire Line
	7350 4700 7350 4350
Wire Wire Line
	7350 4350 8250 4350
Wire Wire Line
	6650 4000 7050 4000
Wire Wire Line
	7050 4000 7050 6400
Wire Wire Line
	7150 3800 7150 4000
Wire Wire Line
	7150 4000 7250 4000
Wire Wire Line
	7250 4000 7250 6000
Wire Wire Line
	7450 4550 8250 4550
Wire Wire Line
	6700 4600 7500 4600
Wire Wire Line
	7500 4600 7500 4450
Wire Wire Line
	7500 4450 8250 4450
Wire Wire Line
	7650 5050 8250 5050
Wire Wire Line
	7150 4950 8250 4950
Wire Wire Line
	7850 5550 8250 5550
Wire Wire Line
	7550 5300 7550 5450
Wire Wire Line
	7550 5450 8250 5450
Wire Wire Line
	8050 6050 8250 6050
Wire Wire Line
	7350 5950 8250 5950
Wire Wire Line
	8600 6450 8700 6450
Connection ~ 8700 6450
Wire Wire Line
	8600 6550 8700 6550
Connection ~ 8700 6550
Wire Wire Line
	8250 6450 8200 6450
Wire Wire Line
	8200 6450 8200 6700
Wire Wire Line
	8200 6550 8250 6550
Wire Wire Line
	8200 6700 8600 6700
Wire Wire Line
	8600 6700 8600 6600
Wire Wire Line
	8600 6600 8700 6600
Connection ~ 8700 6600
Connection ~ 8200 6550
$Comp
L AGND #PWR039
U 1 1 57E3D573
P 1700 2650
F 0 "#PWR039" H 1700 2650 40  0001 C CNN
F 1 "AGND" V 1650 2500 50  0000 C CNN
F 2 "" H 1700 2650 60  0000 C CNN
F 3 "" H 1700 2650 60  0000 C CNN
	1    1700 2650
	0    1    1    0   
$EndComp
Wire Wire Line
	1700 2650 1950 2650
Wire Wire Line
	4700 2950 4600 2950
Wire Wire Line
	4600 2950 4600 2650
Connection ~ 4600 2650
Wire Wire Line
	4600 2750 4700 2750
Connection ~ 4600 2750
Wire Wire Line
	4700 2850 4600 2850
Connection ~ 4600 2850
$Comp
L GND #PWR040
U 1 1 57E3E7EA
P 7400 1050
F 0 "#PWR040" H 7400 1050 30  0001 C CNN
F 1 "GND" H 7400 980 30  0001 C CNN
F 2 "" H 7400 1050 60  0000 C CNN
F 3 "" H 7400 1050 60  0000 C CNN
	1    7400 1050
	0    1    1    0   
$EndComp
Wire Wire Line
	7400 1050 7600 1050
$Comp
L GND #PWR041
U 1 1 57E3E7F1
P 9900 1050
F 0 "#PWR041" H 9900 1050 30  0001 C CNN
F 1 "GND" H 9900 980 30  0001 C CNN
F 2 "" H 9900 1050 60  0000 C CNN
F 3 "" H 9900 1050 60  0000 C CNN
	1    9900 1050
	0    1    1    0   
$EndComp
Wire Wire Line
	9900 1050 10100 1050
NoConn ~ 4700 3250
NoConn ~ 4700 3150
NoConn ~ 1950 3150
NoConn ~ 1950 3250
$EndSCHEMATC
